﻿{
  "Descriptor": {
    "UId": "a43f38d1-d08d-43ff-8c3c-97652db4b603",
    "Name": "ConfToClio",
    "ModifiedOnUtc": "\/Date(1621931033000)\/",
    "ManagerName": "SourceCodeSchemaManager",
    "Caption": "ConfToClio"
  }
}