﻿{
  "SqlScript": {
    "UId": "6dbf66d1-d299-6168-1825-ed4fea462b30",
    "Name": "Convert_MyBusinessLogicUT_BP_PSQL",
    "DBEngineType": 2,
    "InstallType": 1,
    "ModifiedOnUtc": "\/Date(1621929930000)\/",
    "DependsOn": []
  }
}